{
  "version": "1.0.0-*",
  "buildOptions": {
    "emitEntryPoint": true
  },

  "dependencies": {
    "DotJson.Core": "1.0.2",
    "DotJson.Merge": "1.0.0-*",
    "Microsoft.NETCore.App": {
      "type": "platform",
      "version": "1.0.0"
    }
  },

  "frameworks": {
    "netcoreapp1.0": {
      "imports": "dnxcore50"
    }
  }
}
